\relax 
\providecommand\hyper@newdestlabel[2]{}
\providecommand\HyperFirstAtBeginDocument{\AtBeginDocument}
\HyperFirstAtBeginDocument{\ifx\hyper@anchor\@undefined
\global\let\oldcontentsline\contentsline
\gdef\contentsline#1#2#3#4{\oldcontentsline{#1}{#2}{#3}}
\global\let\oldnewlabel\newlabel
\gdef\newlabel#1#2{\newlabelxx{#1}#2}
\gdef\newlabelxx#1#2#3#4#5#6{\oldnewlabel{#1}{{#2}{#3}}}
\AtEndDocument{\ifx\hyper@anchor\@undefined
\let\contentsline\oldcontentsline
\let\newlabel\oldnewlabel
\fi}
\fi}
\global\let\hyper@last\relax 
\gdef\HyperFirstAtBeginDocument#1{#1}
\providecommand\HyField@AuxAddToFields[1]{}
\providecommand\HyField@AuxAddToCoFields[2]{}
\select@language{english}
\@writefile{toc}{\select@language{english}}
\@writefile{lof}{\select@language{english}}
\@writefile{lot}{\select@language{english}}
\citation{Mar:2011}
\citation{Zha:2010}
\citation{Pea:2009}
\citation{McG:2014}
\@writefile{toc}{\contentsline {section}{\numberline {1}Introduction}{1}{section.1}}
\@writefile{lof}{\contentsline {figure}{\numberline {1}{\ignorespaces Cloud Service Level Offering }}{1}{figure.1}}
\newlabel{fig:k1}{{1}{1}{Cloud Service Level Offering}{figure.1}{}}
\citation{EU:2015}
\citation{ITU:2013}
\citation{ISO:2011}
\citation{ITU:2013}
\citation{ISO:2011}
\citation{ISO:2011}
\citation{EU:2014}
\citation{Str:2013}
\@writefile{toc}{\contentsline {section}{\numberline {2}Anonymization}{2}{section.2}}
\citation{Sed:2012}
\citation{Swe:1997}
\citation{Nar:2008}
\@writefile{lof}{\contentsline {figure}{\numberline {2}{\ignorespaces The Concept of Anonymization}}{3}{figure.2}}
\newlabel{fig:k0}{{2}{3}{The Concept of Anonymization}{figure.2}{}}
\citation{Swe:2002}
\citation{Swe:2002}
\citation{Mac:2006}
\citation{Mac:2006}
\@writefile{lot}{\contentsline {table}{\numberline {1}{\ignorespaces Data, no anonymization}}{4}{table.1}}
\newlabel{table:t1}{{1}{4}{Data, no anonymization}{table.1}{}}
\@writefile{lot}{\contentsline {table}{\numberline {2}{\ignorespaces k-anonymous data}}{4}{table.2}}
\newlabel{table:t2}{{2}{4}{k-anonymous data}{table.2}{}}
\citation{Mac:2006}
\citation{Mac:2006}
\citation{Mac:2006}
\citation{Li:2007}
\citation{EU:2014}
\@writefile{lot}{\contentsline {table}{\numberline {3}{\ignorespaces Data, no diversification}}{5}{table.3}}
\newlabel{table:t3}{{3}{5}{Data, no diversification}{table.3}{}}
\@writefile{lot}{\contentsline {table}{\numberline {4}{\ignorespaces 3-diverse data}}{5}{table.4}}
\newlabel{table:t4}{{4}{5}{3-diverse data}{table.4}{}}
\citation{Str:2013}
\citation{Abd:2014}
\citation{Abd:2014}
\@writefile{toc}{\contentsline {section}{\numberline {3}Pseudonymization}{6}{section.3}}
\@writefile{lof}{\contentsline {figure}{\numberline {3}{\ignorespaces The Concept of Pseudonymization}}{6}{figure.3}}
\newlabel{fig:k3}{{3}{6}{The Concept of Pseudonymization}{figure.3}{}}
\@writefile{lof}{\contentsline {figure}{\numberline {4}{\ignorespaces Salted Hashing}}{7}{figure.4}}
\newlabel{fig:k4}{{4}{7}{Salted Hashing}{figure.4}{}}
\citation{Sed:2012}
\citation{Sed:2014}
\@writefile{toc}{\contentsline {section}{\numberline {4}Pseudonymization Proof of Concept}{8}{section.4}}
\@writefile{lof}{\contentsline {figure}{\numberline {5}{\ignorespaces Intel Pseudonymization Proof of Concept }}{8}{figure.5}}
\newlabel{fig:k2}{{5}{8}{Intel Pseudonymization Proof of Concept}{figure.5}{}}
\citation{Sed:2012}
\citation{Sed:2014}
\citation{Sed:2014}
\citation{Sed:2014}
\citation{Sed:2014}
\citation{Sed:2014}
\@writefile{toc}{\contentsline {section}{\numberline {5}Conclusions}{10}{section.5}}
\bibdata{references-en}
\bibcite{Mar:2011}{1}
\bibcite{Zha:2010}{2}
\bibcite{Pea:2009}{3}
\bibcite{McG:2014}{4}
\bibcite{EU:2015}{5}
\bibcite{ITU:2013}{6}
\bibcite{ISO:2011}{7}
\bibcite{EU:2014}{8}
\bibcite{Str:2013}{9}
\bibcite{Sed:2012}{10}
\bibcite{Swe:1997}{11}
\bibcite{Nar:2008}{12}
\@writefile{toc}{\contentsline {section}{References}{11}{section*.2}}
\bibcite{Swe:2002}{13}
\bibcite{Mac:2006}{14}
\bibcite{Li:2007}{15}
\bibcite{Abd:2014}{16}
\bibcite{Sed:2014}{17}
\bibstyle{unsrt}
\newlabel{lastpage}{{5}{12}{Conclusions}{section*.2}{}}
