\select@language {english}
\contentsline {section}{\numberline {1}Introduction}{1}{section.1}
\contentsline {section}{\numberline {2}Anonymization}{2}{section.2}
\contentsline {section}{\numberline {3}Pseudonymization}{6}{section.3}
\contentsline {section}{\numberline {4}Pseudonymization Proof of Concept}{8}{section.4}
\contentsline {section}{\numberline {5}Conclusions}{10}{section.5}
\contentsline {section}{References}{11}{section*.2}
